<?xml version="1.0" encoding="UTF-8" standalone="no"?>
<!-- Created with Inkscape (http://www.inkscape.org/) -->

<svg
   xmlns:dc="http://purl.org/dc/elements/1.1/"
   xmlns:cc="http://creativecommons.org/ns#"
   xmlns:rdf="http://www.w3.org/1999/02/22-rdf-syntax-ns#"
   xmlns:svg="http://www.w3.org/2000/svg"
   xmlns="http://www.w3.org/2000/svg"
   xmlns:sodipodi="http://sodipodi.sourceforge.net/DTD/sodipodi-0.dtd"
   xmlns:inkscape="http://www.inkscape.org/namespaces/inkscape"
   width="86.256569mm"
   height="86.697495mm"
   viewBox="0 0 305.63351 307.19585"
   id="svg2"
   version="1.1"
   inkscape:version="0.91 r13725"
   sodipodi:docname="logo.svg">
  <defs
     id="defs4">
    <inkscape:path-effect
       is_visible="true"
       id="path-effect5436"
       effect="spiro" />
    <inkscape:path-effect
       effect="bend_path"
       id="path-effect5205"
       is_visible="true"
       bendpath="m -388.28125,609.19814 293.359375,-1.95313"
       prop_scale="1.01"
       scale_y_rel="false"
       vertical="false"
       bendpath-nodetypes="cc" />
    <inkscape:path-effect
       effect="envelope"
       id="path-effect5203"
       is_visible="true"
       yy="true"
       xx="true"
       bendpath1="m -389.0625,548.45595 294.140625,0"
       bendpath2="m -94.921875,548.45595 0,117.57813"
       bendpath3="m -389.0625,666.03408 294.140625,0"
       bendpath4="m -389.0625,548.45595 0,117.57813" />
    <inkscape:path-effect
       effect="spiro"
       id="path-effect5201"
       is_visible="true" />
    <marker
       inkscape:isstock="true"
       style="overflow:visible"
       id="marker6052"
       refX="0"
       refY="0"
       orient="auto"
       inkscape:stockid="Arrow2Lend">
      <path
         transform="matrix(-1.1,0,0,-1.1,-1.1,0)"
         d="M 8.7185878,4.0337352 -2.2072895,0.01601326 8.7185884,-4.0017078 c -1.7454984,2.3720609 -1.7354408,5.6174519 -6e-7,8.035443 z"
         style="fill:#000000;fill-opacity:1;fill-rule:evenodd;stroke:#000000;stroke-width:0.625;stroke-linejoin:round;stroke-opacity:1"
         id="path6054"
         inkscape:connector-curvature="0" />
    </marker>
    <marker
       inkscape:isstock="true"
       style="overflow:visible"
       id="marker4770"
       refX="0"
       refY="0"
       orient="auto"
       inkscape:stockid="Arrow2Lend">
      <path
         inkscape:connector-curvature="0"
         transform="matrix(-1.1,0,0,-1.1,-1.1,0)"
         d="M 8.7185878,4.0337352 -2.2072895,0.01601326 8.7185884,-4.0017078 c -1.7454984,2.3720609 -1.7354408,5.6174519 -6e-7,8.035443 z"
         style="fill:#000000;fill-opacity:1;fill-rule:evenodd;stroke:#000000;stroke-width:0.625;stroke-linejoin:round;stroke-opacity:1"
         id="path4772" />
    </marker>
    <marker
       inkscape:isstock="true"
       style="overflow:visible"
       id="Arrow2Lend"
       refX="0"
       refY="0"
       orient="auto"
       inkscape:stockid="Arrow2Lend">
      <path
         inkscape:connector-curvature="0"
         transform="matrix(-1.1,0,0,-1.1,-1.1,0)"
         d="M 8.7185878,4.0337352 -2.2072895,0.01601326 8.7185884,-4.0017078 c -1.7454984,2.3720609 -1.7354408,5.6174519 -6e-7,8.035443 z"
         style="fill:#000000;fill-opacity:1;fill-rule:evenodd;stroke:#000000;stroke-width:0.625;stroke-linejoin:round;stroke-opacity:1"
         id="path4371" />
    </marker>
    <marker
       inkscape:isstock="true"
       style="overflow:visible"
       id="Arrow1Lstart"
       refX="0"
       refY="0"
       orient="auto"
       inkscape:stockid="Arrow1Lstart">
      <path
         inkscape:connector-curvature="0"
         transform="matrix(0.8,0,0,0.8,10,0)"
         style="fill:#000000;fill-opacity:1;fill-rule:evenodd;stroke:#000000;stroke-width:1pt;stroke-opacity:1"
         d="M 0,0 5,-5 -12.5,0 5,5 0,0 Z"
         id="path4350" />
    </marker>
    <inkscape:path-effect
       vertical="false"
       scale_y_rel="false"
       prop_scale="0.82"
       bendpath="m 34.963976,312.24008 396.953514,0"
       is_visible="true"
       id="path-effect4215"
       effect="bend_path" />
    <inkscape:path-effect
       maxComplexity="50"
       drawall="true"
       nbgenerations="6"
       similar_only="false"
       generator="m 46.403883,197.4121 6.030586,0 m 6.030587,0 6.030586,0"
       ref_path="m 46.403883,192.08677 18.091759,0"
       is_visible="true"
       id="path-effect4151"
       effect="vonkoch" />
    <inkscape:path-effect
       is_visible="true"
       id="path-effect4149"
       effect="spiro" />
    <inkscape:path-effect
       steps="7"
       equidistant_spacing="true"
       trajectory="M 0,0 0,0"
       is_visible="true"
       id="path-effect4147"
       effect="interpolate" />
  </defs>
  <sodipodi:namedview
     id="base"
     pagecolor="#ffffff"
     bordercolor="#666666"
     borderopacity="1.0"
     inkscape:pageopacity="0.0"
     inkscape:pageshadow="2"
     inkscape:zoom="3.04"
     inkscape:cx="115.23536"
     inkscape:cy="167.08782"
     inkscape:document-units="px"
     inkscape:current-layer="layer1"
     showgrid="false"
     inkscape:window-width="1440"
     inkscape:window-height="878"
     inkscape:window-x="2"
     inkscape:window-y="0"
     inkscape:window-maximized="0"
     inkscape:snap-bbox="true"
     inkscape:bbox-nodes="true"
     inkscape:bbox-paths="true"
     inkscape:snap-bbox-edge-midpoints="true"
     inkscape:snap-bbox-midpoints="true"
     inkscape:object-nodes="true"
     inkscape:snap-intersection-paths="true"
     inkscape:object-paths="true"
     inkscape:snap-smooth-nodes="true"
     inkscape:snap-midpoints="true"
     inkscape:snap-global="false"
     fit-margin-top="0"
     fit-margin-left="0"
     fit-margin-right="0"
     fit-margin-bottom="0" />
  <metadata
     id="metadata7">
    <rdf:RDF>
      <cc:Work
         rdf:about="">
        <dc:format>image/svg+xml</dc:format>
        <dc:type
           rdf:resource="http://purl.org/dc/dcmitype/StillImage" />
        <dc:title />
      </cc:Work>
    </rdf:RDF>
  </metadata>
  <g
     inkscape:label="Layer 1"
     inkscape:groupmode="layer"
     id="layer1"
     transform="translate(-144.56196,-345.03973)">
    <path
       style="opacity:0.25500039;fill:#4383f1;fill-opacity:1;stroke:none;stroke-width:2;stroke-linecap:butt;stroke-linejoin:round;stroke-miterlimit:4;stroke-dasharray:none;stroke-dashoffset:0;stroke-opacity:1"
       d="m 297.37976,345.03973 a 152.81679,153.59804 0 0 0 -152.8178,153.59686 152.81679,153.59804 0 0 0 152.8178,153.599 152.81679,153.59804 0 0 0 152.8157,-153.599 152.81679,153.59804 0 0 0 -152.8157,-153.59686 z"
       id="path5424"
       inkscape:connector-curvature="0"
       inkscape:export-xdpi="300.06525"
       inkscape:export-ydpi="300.06525" />
    <path
       style="fill:#127ba6;fill-opacity:1;fill-rule:evenodd;stroke:none;stroke-width:1px;stroke-linecap:butt;stroke-linejoin:miter;stroke-opacity:1"
       d="m 260.96711,607.05588 c 5.03994,0.65871 7.73541,8.57835 12.80903,8.27301 16.39252,-0.98654 25.45463,-20.76304 37.88073,-31.49989 8.65845,-7.48139 17.50429,-14.79096 25.54631,-22.93134 10.61825,-10.74813 20.24574,-22.44485 29.865,-34.09556 5.56225,-6.73691 11.12825,-13.49827 16.09015,-20.68884 4.9779,-7.21396 5.03834,-23.93884 13.6769,-22.45727 2.84807,0.48845 2.28094,5.6367 1.78433,8.48332 -4.12437,23.64189 -22.77593,42.5613 -37.79998,61.27566 -14.63275,18.22703 -33.43296,32.67532 -50.31028,48.84627 -7.4875,7.17413 -12.80723,17.9752 -22.60423,21.37361 -7.39371,2.56479 -16.4117,1.45358 -23.38357,-2.10152 -4.80118,-2.44827 -12.0656,-6.98967 -10.62826,-12.18381 0.6611,-2.38902 4.61596,-2.61488 7.07387,-2.29364 z"
       id="path5432"
       inkscape:connector-curvature="0"
       sodipodi:nodetypes="aaaaaaaaaaaaaa"
       inkscape:export-xdpi="300"
       inkscape:export-ydpi="300" />
    <g
       style="font-style:normal;font-variant:normal;font-weight:normal;font-stretch:normal;font-size:331.28305054px;line-height:125%;font-family:Arial;-inkscape-font-specification:Arial;letter-spacing:0px;word-spacing:0px;fill:#e77195;fill-opacity:1;stroke:none;stroke-width:1px;stroke-linecap:butt;stroke-linejoin:miter;stroke-opacity:1;opacity:0.939"
       id="text5426">
      <path
         d="m 217.22578,614.65479 0,-237.13914 88.96761,0 q 27.17557,0 43.51326,7.27917 16.49945,7.11741 25.71973,22.16102 9.38204,14.88186 9.38204,31.21955 0,15.20537 -8.24973,28.63139 -8.24972,13.42603 -24.91093,21.67575 21.51399,6.30861 32.9989,21.51399 11.64667,15.20537 11.64667,35.91056 0,16.66121 -7.11741,31.05779 -6.95565,14.23482 -17.30825,21.99926 -10.35259,7.76445 -26.04325,11.80843 -15.52889,3.88223 -38.17519,3.88223 l -90.42345,0 z m 31.3813,-137.49541 51.2777,0 q 20.86695,0 29.92547,-2.74991 11.97019,-3.5587 17.95529,-11.80843 6.14685,-8.24972 6.14685,-20.70519 0,-11.80843 -5.66158,-20.70519 -5.66157,-9.05852 -16.17593,-12.29371 -10.51435,-3.39694 -36.07232,-3.39694 l -47.39548,0 0,71.65937 z m 0,109.51105 59.04215,0 q 15.20537,0 21.35223,-1.13232 10.83787,-1.94111 18.11704,-6.47037 7.27917,-4.52926 11.97019,-13.1025 4.69102,-8.73501 4.69102,-20.05816 0,-13.26426 -6.79389,-22.96982 -6.79389,-9.86732 -18.92584,-13.74954 -11.97019,-4.04398 -34.61649,-4.04398 l -54.83641,0 0,81.52669 z"
         style=""
         id="path4277" />
    </g>
    <path
       style="opacity:1;fill:#127ba6;fill-opacity:1;fill-rule:evenodd;stroke:none;stroke-width:2.4000001;stroke-linecap:round;stroke-linejoin:miter;stroke-miterlimit:4;stroke-dasharray:none;stroke-opacity:1"
       d="m 284.24958,470.46149 c -35.8567,25.51068 -55.11964,62.67202 -49.02157,104.90238 1.21868,7.22168 4.49629,13.99623 7.737,20.56405 3.6508,7.39886 7.2856,15.14078 13.08258,21.01153 2.89071,2.92752 6.45455,5.47038 10.39434,6.65556 4.60429,1.38519 9.94361,1.96329 14.42266,0.21523 3.23366,-1.26196 8.46844,-3.81836 7.55467,-7.16707 -0.58661,-2.14965 -4.32863,-1.06654 -6.51442,-1.49981 -2.67089,-0.5294 -5.68923,10e-4 -8.05755,-1.34232 -5.39697,-3.06162 -9.14145,-9.35366 -12.04648,-14.19119 -13.70028,-25.52137 -15.98149,-44.11047 -6.91401,-69.82995 3.4187,-9.55685 10.54931,-23.56404 19.01719,-33.03814 9.03209,-10.10535 21.25293,-16.92067 32.75046,-24.09729 8.1593,-5.09294 16.42267,-10.40006 25.57169,-13.36785 11.64045,-3.77597 24.10721,-4.61488 36.32395,-5.32864 5.34323,-0.31218 10.69866,0.55146 16.05029,0.46465 0.4768,-0.008 0.96916,0.0426 1.42784,-0.0877 0.45173,-0.1283 0.91432,-0.329 1.24181,-0.66559 0.21177,-0.21757 0.33634,-0.5192 0.4082,-0.81415 0.0716,-0.29602 0.0817,-0.61726 0.0123,-0.91398 -0.13779,-0.59077 -0.42399,-1.1677 -0.82703,-1.62109 -0.83071,-0.93464 -1.97448,-1.5806 -3.1187,-2.08496 -1.15508,-0.50916 -2.43831,-0.66353 -3.67755,-0.90403 -29.38393,-6.81216 -67.34977,3.02539 -95.81769,23.14041 z"
       id="path5434"
       inkscape:connector-curvature="0"
       sodipodi:nodetypes="ccaaaaaaaccaaaaaaaaaaaccc"
       inkscape:export-xdpi="300"
       inkscape:export-ydpi="300" />
  </g>
</svg>
